{
  "project_info": {
    "project_number": "592737692270",
    "firebase_url": "https://foodtracker-9629b.firebaseio.com",
    "project_id": "foodtracker-9629b",
    "storage_bucket": "foodtracker-9629b.appspot.com"
  },
  "client": [
    {
      "client_info": {
        "mobilesdk_app_id": "1:592737692270:android:a89d206503726ed0",
        "android_client_info": {
          "package_name": "com.example.home.foodtracker"
        }
      },
      "oauth_client": [
        {
          "client_id": "592737692270-l9j452dann63d21dnu9te5lef3l27fjb.apps.googleusercontent.com",
          "client_type": 3
        },
        {
          "client_id": "592737692270-l9j452dann63d21dnu9te5lef3l27fjb.apps.googleusercontent.com",
          "client_type": 3
        }
      ],
      "api_key": [
        {
          "current_key": "AIzaSyALViwBIxUdvh9blEH7bCywUBhNPd_Ohq4"
        }
      ],
      "services": {
        "analytics_service": {
          "status": 1
        },
        "appinvite_service": {
          "status": 1,
          "other_platform_oauth_client": []
        },
        "ads_service": {
          "status": 2
        }
      }
    }
  ],
  "configuration_version": "1"
}